6.635338345864661980e-01
6.804511278195488622e-01
6.353383458646617576e-01
6.315789473684210176e-01
6.672932330827068270e-01
6.372180451127820167e-01
6.710526315789473450e-01
6.785714285714286031e-01
6.654135338345865680e-01
6.804511278195488622e-01
7.030075187969926365e-01
6.860902255639098613e-01
6.334586466165413876e-01
6.484962406015037928e-01
6.428571428571429047e-01
6.221804511278196115e-01
6.654135338345863460e-01
6.691729323308270860e-01
6.898496240601504903e-01
6.503759398496240518e-01
6.635338345864661980e-01
6.522556390977443108e-01
6.691729323308269750e-01
6.917293233082707493e-01
6.823308270676692322e-01
6.522556390977444218e-01
6.165413533834587234e-01
6.860902255639098613e-01
6.710526315789473450e-01
6.616541353383458279e-01
6.954887218045113784e-01
6.203007518796992414e-01
6.184210526315788714e-01
6.748120300751879741e-01
6.860902255639097502e-01
6.597744360902255689e-01
6.522556390977443108e-01
6.616541353383459390e-01
6.409774436090225347e-01
6.428571428571427937e-01
7.161654135338345606e-01
6.748120300751879741e-01
6.597744360902255689e-01
6.804511278195488622e-01
6.635338345864661980e-01
6.879699248120298982e-01
6.578947368421053099e-01
6.748120300751879741e-01
6.334586466165413876e-01
6.748120300751879741e-01
6.917293233082707493e-01
6.672932330827066050e-01
6.466165413533834228e-01
6.635338345864661980e-01
6.428571428571429047e-01
6.898496240601503793e-01
6.466165413533834228e-01
6.578947368421053099e-01
6.635338345864660869e-01
6.729323308270677151e-01
6.541353383458646809e-01
7.011278195488721554e-01
6.466165413533835338e-01
6.785714285714284921e-01
6.691729323308269750e-01
6.616541353383458279e-01
6.691729323308269750e-01
6.842105263157894912e-01
6.353383458646615356e-01
6.729323308270677151e-01
6.503759398496240518e-01
6.597744360902256799e-01
6.296992481203007586e-01
6.240601503759398705e-01
6.447368421052631637e-01
6.898496240601503793e-01
6.447368421052630527e-01
6.372180451127819056e-01
6.954887218045112673e-01
6.466165413533835338e-01
6.672932330827067160e-01
6.503759398496240518e-01
6.522556390977443108e-01
6.635338345864663090e-01
6.522556390977443108e-01
6.428571428571427937e-01
6.635338345864663090e-01
6.804511278195488622e-01
6.823308270676691212e-01
6.672932330827067160e-01
6.353383458646616466e-01
6.503759398496241628e-01
6.710526315789473450e-01
6.954887218045112673e-01
6.372180451127820167e-01
6.597744360902255689e-01
6.635338345864663090e-01
6.315789473684210176e-01
6.315789473684210176e-01
5.977443609022556892e-01
