5.714285714285715079e-01
5.357142857142858094e-01
6.964285714285713969e-01
6.071428571428572063e-01
5.357142857142856984e-01
6.607142857142856984e-01
5.357142857142856984e-01
5.714285714285715079e-01
5.892857142857141906e-01
5.892857142857143016e-01
6.607142857142858094e-01
5.714285714285713969e-01
6.428571428571429047e-01
5.535714285714286031e-01
7.857142857142855874e-01
6.785714285714286031e-01
6.428571428571427937e-01
5.535714285714286031e-01
6.964285714285713969e-01
5.178571428571427937e-01
6.785714285714284921e-01
5.714285714285713969e-01
6.071428571428570953e-01
4.642857142857143016e-01
7.142857142857143016e-01
5.535714285714286031e-01
5.357142857142856984e-01
6.785714285714284921e-01
6.428571428571429047e-01
7.321428571428572063e-01
5.714285714285713969e-01
5.000000000000000000e-01
6.785714285714286031e-01
5.714285714285713969e-01
4.821428571428571508e-01
6.071428571428570953e-01
6.785714285714286031e-01
4.821428571428570953e-01
5.178571428571429047e-01
7.678571428571429047e-01
5.357142857142856984e-01
6.964285714285713969e-01
6.428571428571427937e-01
6.428571428571427937e-01
6.964285714285713969e-01
6.428571428571427937e-01
7.142857142857143016e-01
5.714285714285715079e-01
5.535714285714286031e-01
6.071428571428570953e-01
6.785714285714286031e-01
6.071428571428570953e-01
6.250000000000001110e-01
7.142857142857143016e-01
4.999999999999999445e-01
6.250000000000000000e-01
5.357142857142858094e-01
6.607142857142858094e-01
5.535714285714286031e-01
5.178571428571427937e-01
6.071428571428570953e-01
5.714285714285713969e-01
6.964285714285713969e-01
5.535714285714286031e-01
6.071428571428570953e-01
5.892857142857143016e-01
7.321428571428572063e-01
6.071428571428570953e-01
6.428571428571427937e-01
5.535714285714286031e-01
5.535714285714286031e-01
6.250000000000000000e-01
6.071428571428570953e-01
5.535714285714286031e-01
6.428571428571429047e-01
7.142857142857143016e-01
5.357142857142856984e-01
5.714285714285713969e-01
7.500000000000000000e-01
5.892857142857143016e-01
5.357142857142856984e-01
5.178571428571427937e-01
6.964285714285713969e-01
5.000000000000000000e-01
6.250000000000000000e-01
6.964285714285715079e-01
6.428571428571427937e-01
7.678571428571429047e-01
6.607142857142858094e-01
6.250000000000000000e-01
6.071428571428572063e-01
6.428571428571429047e-01
6.964285714285715079e-01
5.892857142857143016e-01
7.321428571428570953e-01
6.250000000000000000e-01
5.178571428571427937e-01
6.250000000000000000e-01
5.535714285714286031e-01
6.428571428571427937e-01
